<svg width="21" height="20" viewBox="0 0 21 20" fill="none" xmlns="http://www.w3.org/2000/svg">
<g clip-path="url(#clip0)">
<path d="M10.3954 0C15.7898 0 20.1629 4.47717 20.1629 10C20.1629 15.5229 15.7898 20 10.3954 20C5.00098 20 0.62793 15.5229 0.62793 10C0.62793 4.47717 5.00098 0 10.3954 0Z" fill="#F4B844"/>
<path d="M10.3953 17.5361C14.4604 17.5361 17.7559 14.1622 17.7559 10.0002C17.7559 5.83828 14.4604 2.46436 10.3953 2.46436C6.33013 2.46436 3.03467 5.83828 3.03467 10.0002C3.03467 14.1622 6.33013 17.5361 10.3953 17.5361Z" fill="#FEDB41"/>
<path d="M10.3957 9.2586C9.69884 9.2586 9.1339 8.68021 9.1339 7.96674C9.1339 7.25327 9.69884 6.67489 10.3957 6.67489C11.0926 6.67489 11.6575 7.25327 11.6575 7.96674C11.6575 8.231 11.8668 8.44521 12.1249 8.44521C12.383 8.44521 12.5922 8.231 12.5922 7.96674C12.583 6.91676 11.8652 6.01307 10.8631 5.7897V5.21553C10.8631 4.95127 10.6538 4.73706 10.3957 4.73706C10.1376 4.73706 9.92837 4.95127 9.92837 5.21553V5.7897C8.75324 6.09792 8.04465 7.32315 8.34574 8.52626C8.58753 9.4925 9.42212 10.1802 10.3957 10.2155C11.0926 10.2155 11.6575 10.7939 11.6575 11.5074C11.6575 12.2209 11.0926 12.7992 10.3957 12.7992C9.69884 12.7992 9.1339 12.2209 9.1339 11.5074C9.1339 11.2431 8.92468 11.0289 8.66656 11.0289C8.40845 11.0289 8.19922 11.2431 8.19922 11.5074C8.19967 12.5606 8.92137 13.4693 9.92837 13.6844V14.5457C9.92837 14.8099 10.1376 15.0241 10.3957 15.0241C10.6538 15.0241 10.8631 14.8099 10.8631 14.5457V13.6844C12.0382 13.3762 12.7468 12.151 12.4457 10.9479C12.2039 9.98164 11.3693 9.2939 10.3957 9.2586Z" fill="#F4B844"/>
</g>
<defs>
<clipPath id="clip0">
<rect width="19.5349" height="20" fill="white" transform="translate(0.62793)"/>
</clipPath>
</defs>
</svg>
