<svg width="127" height="29" viewBox="0 0 127 29" fill="none" xmlns="http://www.w3.org/2000/svg">
<path d="M19.8175 0C24.873 0 27.4011 2.55473 27.4011 7.66288V9.25106C27.4011 9.43651 27.3745 9.63527 27.3215 9.84671C27.2683 10.0588 27.1491 10.2436 26.9643 10.4024C26.8055 10.5879 26.633 10.7071 26.4482 10.7597C26.2628 10.8129 26.0643 10.8392 25.8529 10.8392H22.3589C21.9084 10.8392 21.5382 10.6872 21.2472 10.3826C20.9555 10.0786 20.8103 9.7012 20.8103 9.25106V8.02014C20.8103 7.5177 20.7707 7.15363 20.6911 6.92823C20.6116 6.70348 20.5187 6.53784 20.4131 6.43196C20.3339 6.32641 20.1812 6.24034 19.9565 6.17408C19.7314 6.10815 19.381 6.0747 18.9042 6.0747H8.81423C8.31114 6.0747 7.92108 6.12115 7.64307 6.21371C7.36538 6.30692 7.15979 6.41897 7.02761 6.55116C6.73595 6.76324 6.59078 7.25268 6.59078 8.02014V20.0107C6.59078 20.7788 6.73595 21.2683 7.02761 21.4797C7.15979 21.6125 7.36506 21.7317 7.64307 21.8373C7.92108 21.9435 8.31114 21.9961 8.81423 21.9961H18.9042C19.6717 21.9961 20.1809 21.8769 20.4329 21.6389C20.684 21.4008 20.81 20.898 20.81 20.1299V19.6535C20.81 19.4687 20.8428 19.2764 20.9094 19.078C20.9753 18.8795 21.088 18.6876 21.2468 18.5024C21.6174 18.2114 21.9877 18.0656 22.3586 18.0656H25.8526C26.329 18.0656 26.7061 18.2183 26.9841 18.5223C27.2621 18.8269 27.4011 19.204 27.4011 19.6538V20.4875C27.4011 22.976 26.759 24.862 25.4755 26.1455C24.1913 27.4297 22.3053 28.0711 19.8178 28.0711H7.82202C5.33355 28.0711 3.40793 27.4359 2.04482 26.1653C0.68139 24.8948 0 22.976 0 20.4079V7.66288C0 5.09581 0.661578 3.17636 1.98539 1.90581C3.30854 0.63527 5.25398 0 7.82202 0H19.8175Z" fill="white"/>
<path d="M54.6233 0.119141C54.8078 0.119141 55.0001 0.152918 55.1985 0.218524C55.3969 0.285104 55.5886 0.397153 55.7743 0.555971C56.0654 0.927196 56.2109 1.29744 56.2109 1.66769V4.64528C56.2109 5.12174 56.0585 5.49881 55.7549 5.77682C55.4499 6.05451 55.0728 6.19384 54.6233 6.19384H46.1683V26.3637C46.1683 26.5225 46.1417 26.7012 46.0891 26.8996C46.0358 27.098 45.9166 27.2903 45.7318 27.4751C45.573 27.6606 45.3943 27.7798 45.1959 27.8324C44.9975 27.886 44.8052 27.9119 44.6201 27.9119H41.2057C41.0202 27.9119 40.8286 27.886 40.6301 27.8324C40.4317 27.7798 40.2527 27.6606 40.0943 27.4751C39.9088 27.2903 39.7896 27.0977 39.737 26.8996C39.6834 26.7012 39.6574 26.5222 39.6574 26.3637V6.19384H31.128C30.9692 6.19384 30.7906 6.16754 30.5921 6.11427C30.3937 6.06133 30.2011 5.95545 30.0163 5.79664C29.8308 5.61184 29.7117 5.41957 29.659 5.22112C29.6058 5.02268 29.5795 4.83073 29.5795 4.64528V1.66769C29.5795 1.21787 29.7246 0.847625 30.0163 0.555971C30.3073 0.264968 30.6779 0.119141 31.128 0.119141H54.6233Z" fill="white"/>
<path d="M59.1089 1.70578C59.181 1.50773 59.2897 1.34699 59.4348 1.22293C59.6155 1.07431 59.8059 1 60.0054 1H62.8027C62.8752 1 63.0656 1.06219 63.3737 1.18594C63.5182 1.31 63.6358 1.45223 63.7264 1.61297C63.8172 1.77403 63.8896 1.90415 63.9439 2.0027L72.4998 20.1285L76.7917 11.0656C77.3351 9.9267 77.8601 8.81844 78.367 7.74111C78.8736 6.6641 79.3311 5.6984 79.7387 4.844C80.146 3.98992 80.5941 3.05547 81.0832 2.04001C81.2277 1.74278 81.382 1.49561 81.5452 1.29724C81.7078 1.09919 81.9254 1 82.1973 1H84.9946C85.1753 1 85.3657 1.07431 85.5652 1.22293C85.71 1.34731 85.8183 1.50773 85.8911 1.70578C85.9638 1.87927 86 2.09009 86 2.33725C85.9816 2.48587 85.9544 2.62205 85.9185 2.74579C85.882 2.87017 85.8458 2.99328 85.8099 3.11702L80.3772 14.5572L74.9448 25.997C74.8359 26.2939 74.682 26.5353 74.4828 26.7213C74.2834 26.9072 74.0574 27 73.8036 27H71.1961C70.9423 27 70.7296 26.9136 70.5576 26.7401C70.3853 26.5672 70.2272 26.3315 70.0824 26.0346L59.1901 3.11766C59.1539 2.99392 59.1128 2.87081 59.0682 2.74643C59.0223 2.62269 59 2.48651 59 2.33789C59 2.09009 59.0362 1.87927 59.1089 1.70578Z" fill="white" stroke="white" stroke-width="2" stroke-miterlimit="10"/>
<path d="M97.3986 22.8843V27.9116H86.1729L91.7477 17.4497L91.9387 17.0935C92.0914 16.8135 92.1677 16.5378 92.1677 16.2662C92.1677 15.579 91.7646 15.2354 90.9585 15.2354C90.6445 15.2354 90.3707 15.352 90.1375 15.5855C89.904 15.819 89.7877 16.0925 89.7877 16.4062C89.7877 16.7625 89.9403 17.085 90.2456 17.3737L88.0186 21.3448C87.0852 20.768 86.3684 20.0337 85.8676 19.1428C85.3671 18.252 85.1167 17.2679 85.1167 16.1902C85.1167 14.5189 85.7062 13.087 86.8858 11.8947C88.0651 10.7027 89.4905 10.1064 91.1622 10.1064C92.8423 10.1064 94.2693 10.6962 95.4451 11.8755C96.6201 13.0551 97.208 14.489 97.208 16.1776C97.208 17.1448 96.9913 18.0444 96.5587 18.8759L94.4967 22.885H97.3986V22.8843Z" fill="white"/>
<path d="M112.455 10.5391V27.9119H107.568V14.6501L105.404 18.9522H106.473V22.7323H99.6893L104.831 10.5394H112.455V10.5391Z" fill="white"/>
<path d="M119.62 10.5391V15.8463C120.426 15.2607 121.232 14.9681 122.038 14.9681C123.261 14.9681 124.23 15.4095 124.947 16.2919C125.664 17.1743 126.022 18.3666 126.022 19.8684V27.9122H121.262V21.2049C121.262 20.6618 121.205 20.2971 121.091 20.1104C120.976 19.9239 120.753 19.8304 120.422 19.8304C119.888 19.8304 119.62 20.225 119.62 21.0142V27.9126H114.86V10.5397H119.62V10.5391Z" fill="white"/>
</svg>
