<svg width="26" height="26" viewBox="0 0 26 26" fill="none" xmlns="http://www.w3.org/2000/svg">
<path d="M22.7101 17.2972L15.6722 24.3352C15.3865 24.6209 14.999 24.7814 14.595 24.7814C14.1909 24.7814 13.8034 24.6209 13.5177 24.3352L3.32995 14.1474C3.16977 13.9872 3.04733 13.7933 2.97154 13.5799C2.89574 13.3664 2.86851 13.1387 2.89181 12.9134L3.55161 6.53528C3.58761 6.18724 3.74232 5.8622 3.98973 5.61479C4.23714 5.36738 4.56218 5.21268 4.91021 5.17667L11.2883 4.51687C11.5137 4.49357 11.7413 4.5208 11.9548 4.5966C12.1683 4.67239 12.3622 4.79483 12.5223 4.95501L22.7101 15.1428C22.9958 15.4285 23.1563 15.816 23.1563 16.22C23.1563 16.6241 22.9958 17.0115 22.7101 17.2972Z" fill="#FAC850"/>
<path d="M14.595 25.1876C14.3415 25.1883 14.0903 25.1387 13.8561 25.0417C13.6219 24.9447 13.4093 24.8022 13.2305 24.6224L4.58783 15.9798L5.16237 15.4053L13.8053 24.0479C14.0148 24.2574 14.299 24.3751 14.5953 24.3751C14.8915 24.3751 15.1757 24.2574 15.3852 24.0479L22.4229 17.01C22.6324 16.8005 22.75 16.5163 22.75 16.2201C22.75 15.9238 22.6324 15.6397 22.4229 15.4301L21.0926 14.0999L21.6672 13.5254L22.9974 14.8556C23.3592 15.2174 23.5625 15.7083 23.5625 16.22C23.5625 16.7318 23.3592 17.2226 22.9974 17.5845L15.9595 24.6225C15.7807 24.8022 15.5681 24.9447 15.3338 25.0417C15.0996 25.1387 14.8485 25.1883 14.595 25.1876Z" fill="#333333"/>
<path d="M14.5949 23.3095C14.4748 23.3098 14.3559 23.2864 14.245 23.2404C14.134 23.1945 14.0333 23.127 13.9486 23.0419L13.5253 22.6185L14.0998 22.0439L14.5231 22.4673C14.5422 22.4863 14.568 22.497 14.5949 22.497C14.6219 22.497 14.6477 22.4863 14.6667 22.4673L15.0781 22.0559L15.6526 22.6305L15.2413 23.0418C15.1566 23.1269 15.0558 23.1944 14.9449 23.2404C14.834 23.2863 14.715 23.3098 14.5949 23.3095Z" fill="#333333"/>
<path d="M21.0061 17.2777L20.4315 16.7032L20.8429 16.2919C20.8619 16.2728 20.8726 16.247 20.8726 16.22C20.8726 16.1931 20.8619 16.1673 20.8429 16.1482L20.4196 15.7249L20.9941 15.1504L21.4175 15.5737C21.5023 15.6586 21.5697 15.7594 21.6156 15.8703C21.6616 15.9812 21.6852 16.1 21.6852 16.2201C21.6852 16.3401 21.6616 16.459 21.6156 16.5699C21.5697 16.6808 21.5023 16.7816 21.4175 16.8664L21.0061 17.2777Z" fill="#333333"/>
<path d="M4.99409 14.0876L4.3968 13.4903C4.30047 13.3943 4.22686 13.278 4.18138 13.1499C4.13591 13.0217 4.11972 12.885 4.13401 12.7498L4.19647 12.1455L5.0047 12.229L4.94219 12.8333C4.9406 12.8483 4.94239 12.8635 4.94745 12.8777C4.9525 12.892 4.96068 12.9049 4.97139 12.9156L5.56863 13.5128L4.99409 14.0876Z" fill="#333333"/>
<path d="M23.9841 12.5938H9.35907L10.141 3.65625H24.766L23.9841 12.5938Z" fill="#FA5D3F"/>
<path d="M6.55164 9.39551C7.22473 9.39551 7.77039 8.84985 7.77039 8.17676C7.77039 7.50366 7.22473 6.95801 6.55164 6.95801C5.87854 6.95801 5.33289 7.50366 5.33289 8.17676C5.33289 8.84985 5.87854 9.39551 6.55164 9.39551Z" fill="#FFFFFE"/>
<path d="M7.7006 7.02749C7.39586 6.72277 6.98256 6.55158 6.5516 6.55158C6.12065 6.55158 5.70734 6.72277 5.4026 7.02749C5.3251 7.10487 5.25556 7.18983 5.19501 7.28109L5.17977 7.2229C4.75629 7.33138 4.3136 7.34147 3.88561 7.2524L3.95544 6.57701C3.98274 6.32212 4.09649 6.08426 4.27775 5.903C4.45902 5.72174 4.69688 5.60799 4.95176 5.58068L8.97907 5.16428L8.89549 4.35604L8.12503 4.43556C8.11906 3.77765 7.93567 3.13353 7.59419 2.57114C7.25271 2.00874 6.7658 1.54891 6.18481 1.24014C5.60382 0.931366 4.95027 0.785088 4.29309 0.816732C3.6359 0.848375 2.99944 1.05677 2.4508 1.41993C1.90216 1.7831 1.46168 2.28758 1.17582 2.88018C0.889954 3.47278 0.769293 4.13154 0.82656 4.78699C0.883827 5.44244 1.1169 6.07029 1.5012 6.60433C1.8855 7.13838 2.40679 7.55883 3.01009 7.82135L2.48766 12.8714C2.45757 13.1569 2.49181 13.4454 2.58785 13.7159C2.68389 13.9864 2.83929 14.2319 3.04264 14.4344L3.92659 15.3184L4.50118 14.744L3.61713 13.86C3.49942 13.7427 3.40946 13.6005 3.35387 13.4439C3.29828 13.2873 3.27847 13.1203 3.29589 12.955L3.80187 8.06404C4.17354 8.13249 4.55353 8.14335 4.92851 8.09623C4.92725 8.12288 4.92661 8.14964 4.92658 8.17652C4.92657 8.44375 4.99247 8.70686 5.11843 8.94254C5.2444 9.17822 5.42655 9.3792 5.64874 9.52767C5.87093 9.67615 6.12631 9.76753 6.39226 9.79373C6.6582 9.81993 6.9265 9.78014 7.1734 9.67788C7.42029 9.57562 7.63816 9.41405 7.80769 9.20748C7.97723 9.00091 8.0932 8.75572 8.14534 8.49362C8.19749 8.23153 8.18418 7.96061 8.10662 7.70489C8.02905 7.44916 7.88961 7.21651 7.70065 7.02754L7.7006 7.02749ZM1.62503 4.46872C1.62503 3.71451 1.92464 2.9912 2.45795 2.45789C2.99126 1.92458 3.71457 1.62497 4.46878 1.62497C5.22299 1.62497 5.94631 1.92458 6.47962 2.45789C7.01293 2.9912 7.31253 3.71451 7.31253 4.46872C7.31253 4.48565 7.31238 4.50258 7.31208 4.51951L4.86838 4.7724C4.42809 4.81948 4.0172 5.01592 3.70409 5.32903C3.39098 5.64214 3.19454 6.05303 3.14746 6.49332L3.09916 6.96051C2.653 6.71503 2.28087 6.35435 2.02159 5.91606C1.7623 5.47778 1.62536 4.97796 1.62503 4.46872ZM7.12607 8.75106C7.01243 8.86468 6.86766 8.94206 6.71005 8.97341C6.55244 9.00476 6.38908 8.98866 6.24062 8.92717C6.09215 8.86567 5.96526 8.76153 5.87598 8.62791C5.78671 8.4943 5.73906 8.33721 5.73906 8.17652C5.73906 8.01582 5.78671 7.85874 5.87598 7.72512C5.96526 7.59151 6.09215 7.48737 6.24062 7.42587C6.38908 7.36437 6.55244 7.34828 6.71005 7.37963C6.86766 7.41097 7.01243 7.48835 7.12607 7.60198C7.27843 7.75435 7.36403 7.96101 7.36403 8.17649C7.36403 8.39197 7.27843 8.59863 7.12607 8.75101V8.75106Z" fill="#333333"/>
<path d="M9.34375 12.5938H15.0312V17.875H14.2188L9.34375 12.5938Z" fill="#FA7D29"/>
<path d="M25.0656 3.38203C25.0276 3.34044 24.9813 3.30723 24.9297 3.2845C24.8782 3.26177 24.8224 3.25002 24.766 3.25H10.141C10.0394 3.24999 9.94153 3.28805 9.86661 3.35667C9.79169 3.42529 9.7452 3.5195 9.73631 3.6207L8.96383 12.45C8.93712 12.5206 8.93057 12.5972 8.94492 12.6712C8.95927 12.7452 8.99395 12.8138 9.04508 12.8693L13.9201 18.1505C13.9582 18.1918 14.0043 18.2247 14.0557 18.2471C14.1072 18.2696 14.1627 18.2813 14.2188 18.2812H15.0313C15.139 18.2812 15.2424 18.2384 15.3185 18.1623C15.3947 18.0861 15.4375 17.9827 15.4375 17.875V13H23.984C24.0856 13 24.1835 12.9619 24.2584 12.8933C24.3334 12.8247 24.3798 12.7305 24.3887 12.6293L24.7442 8.5668L23.9348 8.4957L23.6118 12.1875H9.80238L10.5133 4.0625H24.3227L24.0058 7.6832L24.8153 7.75399L25.1708 3.69149C25.1756 3.63544 25.1688 3.579 25.1507 3.52572C25.1326 3.47245 25.1036 3.42352 25.0656 3.38203ZM14.625 13V17.4688H14.3965L10.2714 13H14.625Z" fill="#333333"/>
<path d="M12.2891 6.90625H13.8125V6.09375H12.2891C12.0467 6.09403 11.8144 6.19043 11.643 6.36178C11.4717 6.53314 11.3753 6.76547 11.375 7.00781V7.61719C11.3753 7.85953 11.4717 8.09186 11.643 8.26322C11.8144 8.43457 12.0467 8.53097 12.2891 8.53125H12.8984C12.9254 8.53125 12.9512 8.54195 12.9703 8.561C12.9893 8.58004 13 8.60588 13 8.63281V9.24219C13 9.26912 12.9893 9.29496 12.9703 9.314C12.9512 9.33305 12.9254 9.34375 12.8984 9.34375H11.375V10.1562H12.8984C13.1408 10.156 13.3731 10.0596 13.5445 9.88822C13.7158 9.71686 13.8122 9.48453 13.8125 9.24219V8.63281C13.8122 8.39047 13.7158 8.15814 13.5445 7.98678C13.3731 7.81543 13.1408 7.71903 12.8984 7.71875H12.2891C12.2621 7.71875 12.2363 7.70805 12.2172 7.689C12.1982 7.66996 12.1875 7.64412 12.1875 7.61719V7.00781C12.1875 6.98088 12.1982 6.95504 12.2172 6.936C12.2363 6.91695 12.2621 6.90625 12.2891 6.90625Z" fill="#333333"/>
<path d="M17.0625 10.1562V7.3125C17.0625 6.98927 16.9341 6.67927 16.7055 6.45071C16.477 6.22215 16.167 6.09375 15.8438 6.09375C15.5205 6.09375 15.2105 6.22215 14.982 6.45071C14.7534 6.67927 14.625 6.98927 14.625 7.3125V10.1562H15.4375V8.9375H16.25V10.1562H17.0625ZM15.4375 8.125V7.3125C15.4375 7.20476 15.4803 7.10142 15.5565 7.02524C15.6327 6.94905 15.736 6.90625 15.8438 6.90625C15.9515 6.90625 16.0548 6.94905 16.131 7.02524C16.2072 7.10142 16.25 7.20476 16.25 7.3125V8.125H15.4375Z" fill="#333333"/>
<path d="M17.875 6.09375V9.75C17.875 9.85774 17.9178 9.96108 17.994 10.0373C18.0702 10.1134 18.1735 10.1562 18.2812 10.1562H19.9062V9.34375H18.6875V6.09375H17.875Z" fill="#333333"/>
<path d="M22.75 6.90625V6.09375H21.125C21.0173 6.09375 20.9139 6.13655 20.8377 6.21274C20.7616 6.28892 20.7188 6.39226 20.7188 6.5V9.75C20.7188 9.85774 20.7616 9.96108 20.8377 10.0373C20.9139 10.1134 21.0173 10.1562 21.125 10.1562H22.75V9.34375H21.5312V8.53125H22.3438V7.71875H21.5312V6.90625H22.75Z" fill="#333333"/>
</svg>
